{
  "project_info": {
    "project_number": "651398224886",
    "project_id": "mobieratest-4a51e",
    "storage_bucket": "mobieratest-4a51e.appspot.com"
  },
  "client": [
    {
      "client_info": {
        "mobilesdk_app_id": "1:651398224886:android:d7f209784dc482d0ffc5d7",
        "android_client_info": {
          "package_name": "com.movieratest"
        }
      },
      "oauth_client": [
        {
          "client_id": "651398224886-b8std6fld3ent3bne4edjvh2i1d82s03.apps.googleusercontent.com",
          "client_type": 3
        }
      ],
      "api_key": [
        {
          "current_key": "AIzaSyC0_vh_DnmQlLhcFliwa6MkQ2vgdLG9tYk"
        }
      ],
      "services": {
        "appinvite_service": {
          "other_platform_oauth_client": [
            {
              "client_id": "651398224886-b8std6fld3ent3bne4edjvh2i1d82s03.apps.googleusercontent.com",
              "client_type": 3
            }
          ]
        }
      }
    }
  ],
  "configuration_version": "1"
}